{
  "version": "14.0.0",
  "vulnerabilities": [
    {
      "vendor": "Trivy",
      "severity": "Medium",
      "name": "CVE-2021-20305",
      "package_name": "libhogweed6",
      "package_version": "3.6-2",
      "solution": "No solution provided"
    },
    {
      "vendor": "Trivy",
      "severity": "Medium",
      "name": "CVE-2021-20305",
      "package_name": "libnettle8",
      "package_version": "3.6-2",
      "solution": "No solution provided"
    },
    {
      "vendor": "Trivy",
      "severity": "Medium",
      "name": "CVE-2018-20839",
      "package_name": "libsystemd0",
      "package_version": "246.6-1ubuntu1.2",
      "solution": "No solution provided"
    },
    {
      "vendor": "Trivy",
      "severity": "Medium",
      "name": "CVE-2018-20839",
      "package_name": "libudev1",
      "package_version": "246.6-1ubuntu1.2",
      "solution": "No solution provided"
    },
    {
      "vendor": "Trivy",
      "severity": "Low",
      "name": "CVE-2020-29562",
      "package_name": "libc-bin",
      "package_version": "2.32-0ubuntu3",
      "solution": "No solution provided"
    },
    {
      "vendor": "Trivy",
      "severity": "Low",
      "name": "CVE-2016-10228",
      "package_name": "libc-bin",
      "package_version": "2.32-0ubuntu3",
      "solution": "No solution provided"
    },
    {
      "vendor": "Trivy",
      "severity": "Low",
      "name": "CVE-2019-25013",
      "package_name": "libc-bin",
      "package_version": "2.32-0ubuntu3",
      "solution": "No solution provided"
    },
    {
      "vendor": "Trivy",
      "severity": "Low",
      "name": "CVE-2020-27618",
      "package_name": "libc-bin",
      "package_version": "2.32-0ubuntu3",
      "solution": "No solution provided"
    },
    {
      "vendor": "Trivy",
      "severity": "Low",
      "name": "CVE-2013-4235",
      "package_name": "login",
      "package_version": "1:4.8.1-1ubuntu6",
      "solution": "No solution provided"
    },
    {
      "vendor": "Trivy",
      "severity": "Low",
      "name": "CVE-2016-10228",
      "package_name": "libc6",
      "package_version": "2.32-0ubuntu3",
      "solution": "No solution provided"
    },
    {
      "vendor": "Trivy",
      "severity": "Low",
      "name": "CVE-2019-25013",
      "package_name": "libc6",
      "package_version": "2.32-0ubuntu3",
      "solution": "No solution provided"
    },
    {
      "vendor": "Trivy",
      "severity": "Low",
      "name": "CVE-2020-27618",
      "package_name": "libc6",
      "package_version": "2.32-0ubuntu3",
      "solution": "No solution provided"
    },
    {
      "vendor": "Trivy",
      "severity": "Low",
      "name": "CVE-2020-29562",
      "package_name": "libc6",
      "package_version": "2.32-0ubuntu3",
      "solution": "No solution provided"
    },
    {
      "vendor": "Trivy",
      "severity": "Low",
      "name": "CVE-2018-5709",
      "package_name": "libk5crypto3",
      "package_version": "1.17-10ubuntu0.1",
      "solution": "No solution provided"
    },
    {
      "vendor": "Trivy",
      "severity": "Low",
      "name": "CVE-2018-5709",
      "package_name": "libgssapi-krb5-2",
      "package_version": "1.17-10ubuntu0.1",
      "solution": "No solution provided"
    },
    {
      "vendor": "Trivy",
      "severity": "Low",
      "name": "CVE-2013-4235",
      "package_name": "passwd",
      "package_version": "1:4.8.1-1ubuntu6",
      "solution": "No solution provided"
    },
    {
      "vendor": "Trivy",
      "severity": "Low",
      "name": "CVE-2019-18276",
      "package_name": "bash",
      "package_version": "5.0-6ubuntu2",
      "solution": "No solution provided"
    },
    {
      "vendor": "Trivy",
      "severity": "Low",
      "name": "CVE-2018-5709",
      "package_name": "libkrb5-3",
      "package_version": "1.17-10ubuntu0.1",
      "solution": "No solution provided"
    },
    {
      "vendor": "Trivy",
      "severity": "Low",
      "name": "CVE-2019-12904",
      "package_name": "libgcrypt20",
      "package_version": "1.8.5-5ubuntu2",
      "solution": "No solution provided"
    },
    {
      "vendor": "Trivy",
      "severity": "Low",
      "name": "CVE-2021-20231",
      "package_name": "libgnutls30",
      "package_version": "3.6.15-4ubuntu2",
      "solution": "No solution provided"
    },
    {
      "vendor": "Trivy",
      "severity": "Low",
      "name": "CVE-2021-20232",
      "package_name": "libgnutls30",
      "package_version": "3.6.15-4ubuntu2",
      "solution": "No solution provided"
    },
    {
      "vendor": "Trivy",
      "severity": "Low",
      "name": "CVE-2018-5709",
      "package_name": "libkrb5support0",
      "package_version": "1.17-10ubuntu0.1",
      "solution": "No solution provided"
    },
    {
      "vendor": "Trivy",
      "severity": "Low",
      "name": "CVE-2016-2781",
      "package_name": "coreutils",
      "package_version": "8.32-3ubuntu1",
      "solution": "No solution provided"
    },
    {
      "vendor": "Trivy",
      "severity": "Low",
      "name": "CVE-2019-13050",
      "package_name": "gpgv",
      "package_version": "2.2.20-1ubuntu1.1",
      "solution": "No solution provided"
    },
    {
      "vendor": "Trivy",
      "severity": "Low",
      "name": "CVE-2017-11164",
      "package_name": "libpcre3",
      "package_version": "2:8.39-13",
      "solution": "No solution provided"
    },
    {
      "vendor": "Trivy",
      "severity": "Low",
      "name": "CVE-2019-20838",
      "package_name": "libpcre3",
      "package_version": "2:8.39-13",
      "solution": "No solution provided"
    },
    {
      "vendor": "Trivy",
      "severity": "Low",
      "name": "CVE-2018-1000654",
      "package_name": "libtasn1-6",
      "package_version": "4.16.0-2",
      "solution": "No solution provided"
    }
   ]
}